Load dataset.
Single ring - single ring (PHE/TYR to U/C)
Corrected center-center distance <= 5.0
34046 points
0.0 2.1 123
2.1 2.2 137
2.2 2.3 202
2.3 2.4 264
2.4 2.5 305
2.5 2.6 415
2.6 2.7 386
2.7 2.8 415
2.8 2.9 455
2.9 3.0 452
3.0 3.1 506
3.1 3.2 440
3.2 3.3 359
3.3 3.4 234
3.4 3.5 174
3.5 3.6 150
3.6 3.8 194
3.8 4.0 110
4.0 4.4 127
0.0 2.3 658
2.3 2.5 122
2.5 2.7 200
2.7 2.8 135
2.8 2.9 187
2.9 3.0 179
3.0 3.1 243
3.1 3.2 254
3.2 3.3 346
3.3 3.4 487
3.4 3.5 519
3.5 3.6 472
3.6 3.7 409
3.7 3.8 316
3.8 3.9 192
3.9 4.0 144
4.0 4.1 118
4.1 4.3 163
4.3 4.5 148
4.5 4.7 103
Filtering: center-center distance <= 5.3 A
Total number of sin(ring-ring plane) < 0.4: 3066

Filtering: center-center distance <= 5.0 A
  and center-center Z distance between 2.3 and 4.5 A
Post-filtering sin(ring-ring plane angle) histogram
Under 0.4: 2939, 68.4 percent
Coverage under 0.4: 2939/3066, 95.9 percent

Filtering: center-center distance <= 5.0 A
  and center-center Z distance between 2.3 and 4.5 A
  and corrected center-center distance between 2.3 and 3.8 A
Post-filtering sin(ring-ring plane angle) histogram
[(442, 0.1018832508707419), (966, 0.20167397428303957), (852, 0.30146469769533724), (639, 0.4012554211076349), (445, 0.5010461445199326), (273, 0.6008368679322302), (206, 0.7006275913445279), (149, 0.8004183147568256), (77, 0.9002090381691232), (70, 0.9999997615814209)]
Under 0.4: 2896, 70.3 percent
Coverage under 0.4: 2896/3066, 94.5 percent
Coverage if filtering angle at 15 degrees: 1928/3066, 62.9 percent

Filtering: center-center distance <= 4.6 A
  and center-center Z distance between 2.3 and 4.5 A
  and corrected center-center distance between 2.5 and 3.4 A
Post-filtering sin(ring-ring plane angle) histogram
[(400, 0.1018832508707419), (827, 0.20167397428303957), (666, 0.30146469769533724), (470, 0.4012554211076349), (299, 0.5010461445199326), (153, 0.6008368679322302), (100, 0.7006275913445279), (52, 0.8004183147568256), (17, 0.9002090381691232), (5, 0.9999997615814209)]
Under 0.4: 2362, 79.0 percent
Under 0.5: 2662, 89.1 percent

Rotational space: distribution of sin(ring-ring plane angle) for random planes
Under 0.4: 8.2 percent
Under 0.5: 13.2 percent

Translational space
Define a grid of 1/3*sqrt(3) Angstroms spacing.
This will give a maximum distance from the center of 0.5 A
 and a mean square distance from the center of sqrt(a**2/4) = 0.29 A
Filtering: center-center distance <= 5.0 A
  and corrected center-center distance between 2.3 and 3.8 A
8.0 0.5773502691896257
Number of grid points: 886
