0.0 3.3 121
3.3 3.4 119
3.4 3.5 219
3.5 3.6 300
3.6 3.7 364
3.7 3.8 388
3.8 3.9 428
3.9 4.0 374
4.0 4.1 329
4.1 4.2 263
4.2 4.3 265
4.3 4.4 295
4.4 4.5 269
4.5 4.6 232
4.6 4.7 231
4.7 4.8 197
4.8 4.9 209
4.9 5.0 221
5.0 5.1 203
5.1 5.2 227
5.2 5.3 233
5.3 5.4 260
5.4 5.5 249
5.5 5.6 271
5.6 5.7 286
5.7 5.8 295
5.8 5.9 280
5.9 6.0 295
6.0 6.5 1973
6.5 7.0 3192
7.0 7.5 3223
7.5 8.0 3019
8.0 8.5 3488
8.5 9.0 4229
9.0 9.5 5535
9.5 10.0 6040
10.0 12.0 40202
12.0 14.0 56850
14.0 16.0 100837
16.0 18.0 133163
18.0 20.0 173419

Ring-ring distance under 4.0 A, sin(angle) <= 0.4 1989
Ring-ring distance under 4.0 A, sin(angle) > 0.4 324
Ring-ring distance 4.0 - 5.3 A, sin(angle) <= 0.4 1077
Ring-ring distance 4.0 - 5.3 A, sin(angle) > 0.4 2097

Ring-ring distance under 4.0 A, sin(angle) <= 0.3 1654
Ring-ring distance under 4.0 A, sin(angle) > 0.3 659
Ring-ring distance 4.0 - 5.3 A, sin(angle) <= 0.3 690
Ring-ring distance 4.0 - 5.3 A, sin(angle) > 0.3 2484
